{
  "project_info": {
    "project_number": "217477848423",
    "firebase_url": "https://beat-radio-932eb.firebaseio.com",
    "project_id": "beat-radio-932eb",
    "storage_bucket": "beat-radio-932eb.appspot.com"
  },
  "client": [
    {
      "client_info": {
        "mobilesdk_app_id": "1:217477848423:android:02d4dd2b895b7da57623c2",
        "android_client_info": {
          "package_name": "cl.beat_radio"
        }
      },
      "oauth_client": [
        {
          "client_id": "217477848423-gsu97b61oiol46fm46bbbd7i0tahffso.apps.googleusercontent.com",
          "client_type": 3
        }
      ],
      "api_key": [
        {
          "current_key": "AIzaSyB_UBOR1EbPgAU-WEjQMVyhq0FE8oOqhH0"
        }
      ],
      "services": {
        "appinvite_service": {
          "other_platform_oauth_client": [
            {
              "client_id": "217477848423-gsu97b61oiol46fm46bbbd7i0tahffso.apps.googleusercontent.com",
              "client_type": 3
            }
          ]
        }
      }
    }
  ],
  "configuration_version": "1"
}